CO_Lab_3_v4/sample_code/lab3_cpu.vcd
$date
	Thu May 28 21:16:32 2020
$end
$version
	Icarus Verilog
$end
$timescale
	1s
$end
$scope module TestBench $end
$scope module cpu $end
$var wire 1 ! clk_i $end
$var wire 1 " rst_i $end
$var wire 1 # zero_o $end
$var wire 32 $ shift_o [31:0] $end
$var wire 32 % se_o [31:0] $end
$var wire 32 & result_o [31:0] $end
$var wire 2 ' result_ctrl_o [1:0] $end
$var wire 1 ( regwrite_o $end
$var wire 2 ) regdst [1:0] $end
$var wire 32 * rdata_o [31:0] $end
$var wire 32 + rdata2_o [31:0] $end
$var wire 32 , rdata1_o [31:0] $end
$var wire 32 - pc_o [31:0] $end
$var wire 5 . mux_write_o [4:0] $end
$var wire 32 / mux_pcsrc_o [31:0] $end
$var wire 32 0 mux_alusrc_o [31:0] $end
$var wire 32 1 mux_adder_o [31:0] $end
$var wire 1 2 memwrite_o $end
$var wire 1 3 memread_o $end
$var wire 3 4 leftright_o [2:0] $end
$var wire 1 5 jumpreg_o $end
$var wire 1 6 jump_o $end
$var wire 32 7 j_jal_o [31:0] $end
$var wire 32 8 j_addr_o [31:0] $end
$var wire 32 9 instr [31:0] $end
$var wire 1 : greater_zero_o $end
$var wire 1 ; branch $end
$var wire 1 < alusrc_o $end
$var wire 6 = aluop_o [5:0] $end
$var wire 32 > adder_o [31:0] $end
$var wire 32 ? adder2_pcsrc_o [31:0] $end
$var wire 32 @ MUX_jr_o [31:0] $end
$var wire 4 A ALUCtrl_o [3:0] $end
$scope module AC $end
$var wire 6 B funct_i [5:0] $end
$var wire 6 C ALUOp_i [5:0] $end
$var reg 4 D ALUCtrl_o [3:0] $end
$var reg 1 5 jump_reg_o $end
$var reg 3 E leftright_o [2:0] $end
$var reg 2 F result_ctrl_o [1:0] $end
$upscope $end
$scope module ALU $end
$var wire 32 G AND [31:0] $end
$var wire 32 H OR [31:0] $end
$var wire 4 I ctrl_i [3:0] $end
$var wire 32 J ssrc1_i [31:0] $end
$var wire 32 K ssrc2_i [31:0] $end
$var wire 32 L ult [31:0] $end
$var wire 32 M src2_i [31:0] $end
$var wire 32 N src1_i [31:0] $end
$var wire 64 O mul [63:0] $end
$var wire 32 P lt [31:0] $end
$var wire 1 Q greater_zero $end
$var wire 32 R SUB [31:0] $end
$var wire 32 S ADD [31:0] $end
$var reg 1 : greater_zero_o $end
$var reg 32 T result_o [31:0] $end
$var reg 1 # zero_o $end
$upscope $end
$scope module Adder1 $end
$var wire 32 U sum_o [31:0] $end
$var wire 32 V src2_i [31:0] $end
$var wire 32 W src1_i [31:0] $end
$upscope $end
$scope module Data_Memory $end
$var wire 32 X addr_i [31:0] $end
$var wire 1 ! clk_i $end
$var wire 32 Y data_i [31:0] $end
$var wire 1 2 MemWrite_i $end
$var wire 1 3 MemRead_i $end
$var reg 32 Z data_o [31:0] $end
$var integer 32 [ i [31:0] $end
$upscope $end
$scope module Decoder $end
$var wire 1 : greater_zero_i $end
$var wire 6 \ instr_op_i [5:0] $end
$var wire 1 5 jump_reg_i $end
$var wire 1 # zero_i $end
$var reg 1 < ALUSrc_o $end
$var reg 6 ] ALU_op_o [5:0] $end
$var reg 2 ^ RegDst_o [1:0] $end
$var reg 1 ( RegWrite_o $end
$var reg 1 ; branch_o $end
$var reg 1 6 jump_o $end
$var reg 1 3 memread_o $end
$var reg 1 2 memwrite_o $end
$upscope $end
$scope module IM $end
$var wire 32 _ pc_addr_i [31:0] $end
$var reg 32 ` instr_o [31:0] $end
$var integer 32 a i [31:0] $end
$upscope $end
$scope module Mux_ALUSrc $end
$var wire 1 < select_i $end
$var wire 32 b data1_i [31:0] $end
$var wire 32 c data0_i [31:0] $end
$var reg 32 d data_o [31:0] $end
$upscope $end
$scope module Mux_Adder $end
$var wire 32 e data0_i [31:0] $end
$var wire 1 ; select_i $end
$var wire 32 f data1_i [31:0] $end
$var reg 32 g data_o [31:0] $end
$upscope $end
$scope module Mux_PC_Source $end
$var wire 32 h data0_i [31:0] $end
$var wire 32 i data2_i [31:0] $end
$var wire 32 j data3_i [31:0] $end
$var wire 2 k select_i [1:0] $end
$var wire 32 l data1_i [31:0] $end
$var reg 32 m data_o [31:0] $end
$upscope $end
$scope module Mux_Write_Reg $end
$var wire 5 n data0_i [4:0] $end
$var wire 5 o data1_i [4:0] $end
$var wire 5 p data2_i [4:0] $end
$var wire 2 q select_i [1:0] $end
$var reg 5 r data_o [4:0] $end
$upscope $end
$scope module Mux_j_jal $end
$var wire 32 s data0_i [31:0] $end
$var wire 1 6 select_i $end
$var wire 32 t data1_i [31:0] $end
$var reg 32 u data_o [31:0] $end
$upscope $end
$scope module Mux_jr $end
$var wire 32 v data0_i [31:0] $end
$var wire 1 5 select_i $end
$var wire 32 w data1_i [31:0] $end
$var reg 32 x data_o [31:0] $end
$upscope $end
$scope module PC $end
$var wire 1 ! clk_i $end
$var wire 32 y pc_in_i [31:0] $end
$var wire 1 " rst_i $end
$var reg 32 z pc_out_o [31:0] $end
$upscope $end
$scope module RF $end
$var wire 5 { RDaddr_i [4:0] $end
$var wire 32 | RDdata_i [31:0] $end
$var wire 5 } RSaddr_i [4:0] $end
$var wire 32 ~ RSdata_o [31:0] $end
$var wire 5 !" RTaddr_i [4:0] $end
$var wire 32 "" RTdata_o [31:0] $end
$var wire 1 ( RegWrite_i $end
$var wire 1 ! clk_i $end
$var wire 1 " rst_i $end
$upscope $end
$scope module SE $end
$var wire 16 #" data_i [15:0] $end
$var wire 6 $" opcode_i [5:0] $end
$var reg 32 %" data_o [31:0] $end
$upscope $end
$scope module Shifter $end
$var wire 32 &" data1_i [31:0] $end
$var wire 32 '" data2_i [31:0] $end
$var wire 3 (" leftright_i [2:0] $end
$var wire 32 )" se_i [31:0] $end
$var wire 5 *" shamt_i [4:0] $end
$var reg 32 +" data_o [31:0] $end
$upscope $end
$scope module adder2 $end
$var wire 32 ," src1_i [31:0] $end
$var wire 32 -" src2_i [31:0] $end
$var wire 32 ." sum_o [31:0] $end
$upscope $end
$scope module combine $end
$var wire 4 /" PC_addr [3:0] $end
$var wire 26 0" instr [25:0] $end
$var reg 32 1" j_addr [31:0] $end
$upscope $end
$upscope $end
$upscope $end
$enddefinitions $end
#0
$dumpvars
bx 1"
bx 0"
bx /"
bx ."
bx -"
b100 ,"
bx +"
bx *"
bx )"
bx ("
bx '"
bx &"
bx %"
bx $"
bx #"
bx ""
bx !"
bx ~
bx }
bx |
bx {
bx z
bx y
bx x
bx w
bx v
bx u
bx t
bx s
bx r
bx q
b11111 p
bx o
bx n
bx m
bx l
bx k
bx j
bx i
bx h
b100 g
bx f
b100 e
bx d
bx c
bx b
b100000 a
bx `
bx _
bx ^
bx ]
bx \
b10000000 [
bx Z
bx Y
bx X
bx W
b100 V
bx U
bx T
bx S
bx R
xQ
b0x P
bx O
bx N
bx M
b0x L
bx K
bx J
bx I
bx H
bx G
bx F
bx E
bx D
bx C
bx B
bx A
bx @
bx ?
bx >
bx =
x<
x;
x:
bx 9
bx 8
bx 7
x6
x5
bx 4
x3
x2
b100 1
bx 0
bx /
bx .
bx -
bx ,
bx +
bx *
bx )
x(
bx '
bx &
bx %
bx $
x#
0"
0!
$end
#5
b110000 ?
b110000 f
b110000 ."
b101100 /
b101100 m
b101100 |
b101100 -"
b101100 &
b101100 T
b101100 X
b101100 h
05
0#
b100 @
b100 x
b100 y
b10 A
b10 D
b10 I
b1 L
b101100 H
b1 P
0:
b0 '
b0 F
b0 k
03
02
06
0;
1(
1<
b0 )
b0 ^
b0 q
b1000 =
b1000 C
b1000 ]
b11111111111111111111111111010100 R
b101100 S
b0 O
b101100 K
b101100 0
b101100 M
b101100 d
b11101 .
b11101 r
b11101 {
b100 7
b100 u
b100 v
0Q
b101100 %
b101100 b
b101100 %"
b101100 )"
b0 G
b11101000000000010110000 8
b11101000000000010110000 t
b11101000000000010110000 1"
b111010000000000101100 0"
b0 *"
b1000 $"
b101100 #"
b101100 B
b1000 \
b10000000 +
b10000000 Y
b10000000 c
b10000000 ""
b10000000 '"
b11101 !"
b0 J
b0 ,
b0 N
b0 w
b0 ~
b0 &"
b0 }
b0 o
b11101 n
b0 /"
b100000000111010000000000101100 9
b100000000111010000000000101100 `
b100 >
b100 U
b100 j
b100 s
b0 -
b0 W
b0 _
b0 z
1!
#10
b101100 +
b101100 Y
b101100 c
b101100 ""
b101100 '"
0!
1"
#15
b111 ?
b111 f
b111 ."
b11 /
b11 m
b11 |
b11 -"
b11 &
b11 T
b11 X
b11 h
b1000 @
b1000 x
b1000 y
b11 H
b11111111111111111111111111111101 R
b11 S
b11 K
b11 0
b11 M
b11 d
b100 .
b100 r
b100 {
b1000 7
b1000 u
b1000 v
b100000000000000001100 8
b100000000000000001100 t
b100000000000000001100 1"
b11 %
b11 b
b11 %"
b11 )"
b1000000000000000011 0"
b11 #"
b11 B
b100 +
b100 Y
b100 c
b100 ""
b100 '"
b100 !"
b100 n
b100000000001000000000000000011 9
b100000000001000000000000000011 `
b1000 >
b1000 U
b1000 j
b1000 s
b100 -
b100 W
b100 _
b100 z
1!
#20
0!
#25
b1100 ?
b1100 f
b1100 ."
b1000 /
b1000 m
b1000 |
b1000 -"
b1000 &
b1000 T
b1000 X
b1000 h
b1100 @
b1100 x
b1100 y
b1000 H
b11111111111111111111111111111000 R
b1000 S
b1000 K
b1000 0
b1000 M
b1000 d
b101 .
b101 r
b101 {
b1100 7
b1100 u
b1100 v
b101000000000000100000 8
b101000000000000100000 t
b101000000000000100000 1"
b1000 %
b1000 b
b1000 %"
b1000 )"
b1010000000000001000 0"
b1000 #"
b1000 B
b101 !"
b101 n
b100000000001010000000000001000 9
b100000000001010000000000001000 `
b1100 >
b1100 U
b1100 j
b1100 s
b1000 -
b1000 W
b1000 _
b1000 z
b101 +
b101 Y
b101 c
b101 ""
b101 '"
1!
#30
0!
#35
1#
b10100 ?
b10100 f
b10100 ."
b10000 /
b10000 m
b10000 |
b10000 -"
b0 L
b0 P
b0 &
b0 T
b0 X
b0 h
b11 '
b11 F
b11 k
b10100 @
b10100 x
b10100 y
b0 H
b0 R
b0 S
b0 K
b0 0
b0 M
b0 d
16
0<
b10 )
b10 ^
b10 q
b11 =
b11 C
b11 ]
b11111 .
b11111 r
b11111 {
b10100 7
b10100 u
b10100 v
b10100 8
b10100 t
b10100 1"
b101 %
b101 b
b101 %"
b101 )"
b101 0"
b11 $"
b101 #"
b101 B
b11 \
b0 !"
b0 n
b1100000000000000000000000101 9
b1100000000000000000000000101 `
b10000 >
b10000 U
b10000 j
b10000 s
b1100 -
b1100 W
b1100 _
b1100 z
b0 +
b0 Y
b0 c
b0 ""
b0 '"
1!
#40
0!
#45
b1 L
b11000 @
b11000 x
b11000 y
b11101 .
b11101 r
b11101 {
b0 '
b0 F
b0 k
b101000 G
1:
b11000 7
b11000 u
b11000 v
06
1<
b0 )
b0 ^
b0 q
b1000 =
b1000 C
b1000 ]
b1111111111111111111111111111111111111111111111111111101111100000 O
b11111111111111111111111111101000 K
b11111111111111111111111111101000 0
b11111111111111111111111111101000 M
b11111111111111111111111111101000 d
0#
b10100 &
b10100 T
b10100 X
b10100 h
b11000 ?
b11000 f
b11000 ."
b10100 /
b10100 m
b10100 |
b10100 -"
1Q
b1110111101111111111110100000 8
b1110111101111111111110100000 t
b1110111101111111111110100000 1"
b11111111111111111111111111101000 %
b11111111111111111111111111101000 b
b11111111111111111111111111101000 %"
b11111111111111111111111111101000 )"
b11111111111111111111111111101100 H
b11101111011111111111101000 0"
b11111 *"
b1000 $"
b1111111111101000 #"
b101000 B
b1000 \
b101100 +
b101100 Y
b101100 c
b101100 ""
b101100 '"
b11101 !"
b1000100 R
b10100 S
b101100 J
b101100 ,
b101100 N
b101100 w
b101100 ~
b101100 &"
b11101 }
b11111 o
b11101 n
b100011101111011111111111101000 9
b100011101111011111111111101000 `
b11000 >
b11000 U
b11000 j
b11000 s
b10100 -
b10100 W
b10100 _
b10100 z
1!
#50
0!
#55
b11100 @
b11100 x
b11100 y
b11000 ?
b11000 f
b11000 ."
b10100 /
b10100 m
b10100 |
b10100 -"
b0 L
b0 K
b0 0
b0 M
b0 d
12
0(
b101011 =
b101011 C
b101011 ]
b100 .
b100 r
b100 {
b11100 7
b11100 u
b11100 v
b10100 &
b10100 T
b10100 X
b10100 h
b1110100100000000000000000000 8
b1110100100000000000000000000 t
b1110100100000000000000000000 1"
b0 %
b0 b
b0 %"
b0 )"
b11101001000000000000000000 0"
b0 *"
b101011 $"
b0 #"
b0 B
b101011 \
b100 !"
b0 o
b100 n
b10101111101001000000000000000000 9
b10101111101001000000000000000000 `
b10100 H
b0 G
b11100 >
b11100 U
b11100 j
b11100 s
b11000 -
b11000 W
b11000 _
b11000 z
b10100 R
b10100 S
b0 O
b10100 J
b10100 ,
b10100 N
b10100 w
b10100 ~
b10100 &"
b11 +
b11 Y
b11 c
b11 ""
b11 '"
1!
#60
0!
#65
b11100 ?
b11100 f
b11100 ."
b11000 /
b11000 m
b11000 |
b11000 -"
b11000 &
b11000 T
b11000 X
b11000 h
b100000 @
b100000 x
b100000 y
b100 G
b10000 R
b11000 S
b1010000 O
b100 K
b100 0
b100 M
b100 d
b101 .
b101 r
b101 {
b100000 7
b100000 u
b100000 v
b1110100101000000000000010000 8
b1110100101000000000000010000 t
b1110100101000000000000010000 1"
b100 %
b100 b
b100 %"
b100 )"
b11101001010000000000000100 0"
b100 #"
b100 B
b1000 +
b1000 Y
b1000 c
b1000 ""
b1000 '"
b101 !"
b101 n
b10101111101001010000000000000100 9
b10101111101001010000000000000100 `
b100000 >
b100000 U
b100000 j
b100000 s
b11100 -
b11100 W
b11100 _
b11100 z
1!
#70
0!
#75
b100000 ?
b100000 f
b100000 ."
b11100 /
b11100 m
b11100 |
b11100 -"
b11100 &
b11100 T
b11100 X
b11100 h
b100100 @
b100100 x
b100100 y
b11100 H
b0 G
b1100 R
b11100 S
b10100000 O
b1000 K
b1000 0
b1000 M
b1000 d
b10000 .
b10000 r
b10000 {
b100100 7
b100100 u
b100100 v
b1110110000000000000000100000 8
b1110110000000000000000100000 t
b1110110000000000000000100000 1"
b1000 %
b1000 b
b1000 %"
b1000 )"
b11101100000000000000001000 0"
b1000 #"
b1000 B
b0 +
b0 Y
b0 c
b0 ""
b0 '"
b10000 !"
b10000 n
b10101111101100000000000000001000 9
b10101111101100000000000000001000 `
b100100 >
b100100 U
b100100 j
b100100 s
b100000 -
b100000 W
b100000 _
b100000 z
1!
#80
0!
#85
b100100 ?
b100100 f
b100100 ."
b100000 /
b100000 m
b100000 |
b100000 -"
b100000 &
b100000 T
b100000 X
b100000 h
b101000 @
b101000 x
b101000 y
b100 G
b1000 R
b100000 S
b11110000 O
b1100 K
b1100 0
b1100 M
b1100 d
b10001 .
b10001 r
b10001 {
b101000 7
b101000 u
b101000 v
b1110110001000000000000110000 8
b1110110001000000000000110000 t
b1110110001000000000000110000 1"
b1100 %
b1100 b
b1100 %"
b1100 )"
b11101100010000000000001100 0"
b1100 #"
b1100 B
b10001 !"
b10001 n
b10101111101100010000000000001100 9
b10101111101100010000000000001100 `
b101000 >
b101000 U
b101000 j
b101000 s
b100100 -
b100100 W
b100100 _
b100100 z
1!
#90
0!
#95
b101000 ?
b101000 f
b101000 ."
b100100 /
b100100 m
b100100 |
b100100 -"
b100100 &
b100100 T
b100100 X
b100100 h
b101100 @
b101100 x
b101100 y
b10100 H
b10000 G
b100 R
b100100 S
b101000000 O
b10000 K
b10000 0
b10000 M
b10000 d
b11111 .
b11111 r
b11111 {
b101100 7
b101100 u
b101100 v
b1110111111000000000001000000 8
b1110111111000000000001000000 t
b1110111111000000000001000000 1"
b10000 %
b10000 b
b10000 %"
b10000 )"
b11101111110000000000010000 0"
b10000 #"
b10000 B
b10000 +
b10000 Y
b10000 c
b10000 ""
b10000 '"
b11111 !"
b11111 n
b10101111101111110000000000010000 9
b10101111101111110000000000010000 `
b101100 >
b101100 U
b101100 j
b101100 s
b101000 -
b101000 W
b101000 _
b101000 z
1!
#100
0!
#105
b1111 ?
b1111 f
b1111 ."
b1011 /
b1011 m
b1011 |
b1011 -"
b110000 @
b110000 x
b110000 y
b1000 K
b1000 0
b1000 M
b1000 d
1(
0<
b1 )
b1 ^
b1 q
02
b0 =
b0 C
b0 ]
b1011 &
b1011 T
b1011 X
b1011 h
b1000 .
b1000 r
b1000 {
b110000 7
b110000 u
b110000 v
b10000101010000000010000100 8
b10000101010000000010000100 t
b10000101010000000010000100 1"
b100000000100001 %
b100000000100001 b
b100000000100001 %"
b100000000100001 )"
b1 L
b1011 H
b0 G
b1 P
b100001010100000000100001 0"
b0 $"
b100000000100001 #"
b100001 B
b0 \
b1000 +
b1000 Y
b1000 c
b1000 ""
b1000 '"
b101 !"
b11111111111111111111111111111011 R
b1011 S
b11000 O
b11 J
b11 ,
b11 N
b11 w
b11 ~
b11 &"
b100 }
b1000 o
b101 n
b100001010100000000100001 9
b100001010100000000100001 `
b110000 >
b110000 U
b110000 j
b110000 s
b101100 -
b101100 W
b101100 _
b101100 z
1!
#110
0!
#115
b1111 ?
b1111 f
b1111 ."
b1011 /
b1011 m
b1011 |
b1011 -"
b110100 @
b110100 x
b110100 y
0:
b1011 K
b1011 0
b1011 M
b1011 d
b1011 &
b1011 T
b1011 X
b1011 h
b10 .
b10 r
b10 {
b110100 7
b110100 u
b110100 v
0Q
b1000000100000010000100 8
b1000000100000010000100 t
b1000000100000010000100 1"
b1000000100001 %
b1000000100001 b
b1000000100001 %"
b1000000100001 )"
b1011 H
b10000001000000100001 0"
b1000000100001 #"
b1011 +
b1011 Y
b1011 c
b1011 ""
b1011 '"
b1000 !"
b11111111111111111111111111110101 R
b1011 S
b0 O
b0 J
b0 ,
b0 N
b0 w
b0 ~
b0 &"
b0 }
b10 o
b1000 n
b10000001000000100001 9
b10000001000000100001 `
b110100 >
b110100 U
b110100 j
b110100 s
b110000 -
b110000 W
b110000 _
b110000 z
1!
#120
0!
#125
b11 $
b11 l
b11 +"
b111 ?
b111 f
b111 ."
b11 /
b11 m
b11 |
b11 -"
b111000 @
b111000 x
b111000 y
b11 *
b11 Z
b11 i
1:
b10 '
b10 F
b10 k
b100 4
b100 E
b100 ("
13
1<
b0 )
b0 ^
b0 q
b100011 =
b100011 C
b100011 ]
b0 K
b0 0
b0 M
b0 d
b10100 &
b10100 T
b10100 X
b10100 h
b100 .
b100 r
b100 {
b111000 7
b111000 u
b111000 v
1Q
b1110100100000000000000000000 8
b1110100100000000000000000000 t
b1110100100000000000000000000 1"
b0 %
b0 b
b0 %"
b0 )"
b0 L
b10100 H
b0 P
b11101001000000000000000000 0"
b100011 $"
b0 #"
b0 B
b100011 \
b11 +
b11 Y
b11 c
b11 ""
b11 '"
b100 !"
b10100 R
b10100 S
b0 O
b10100 J
b10100 ,
b10100 N
b10100 w
b10100 ~
b10100 &"
b11101 }
b0 o
b100 n
b10001111101001000000000000000000 9
b10001111101001000000000000000000 `
b111000 >
b111000 U
b111000 j
b111000 s
b110100 -
b110100 W
b110100 _
b110100 z
1!
#130
0!
#135
b1100 ?
b1100 f
b1100 ."
b1000 /
b1000 m
b1000 |
b1000 -"
b1000 *
b1000 Z
b1000 i
b11000 &
b11000 T
b11000 X
b11000 h
b111100 @
b111100 x
b111100 y
b100 G
b10000 R
b11000 S
b1010000 O
b100 K
b100 0
b100 M
b100 d
b1000 $
b1000 l
b1000 +"
b101 .
b101 r
b101 {
b111100 7
b111100 u
b111100 v
b1110100101000000000000010000 8
b1110100101000000000000010000 t
b1110100101000000000000010000 1"
b100 %
b100 b
b100 %"
b100 )"
b11101001010000000000000100 0"
b100 #"
b100 B
b1000 +
b1000 Y
b1000 c
b1000 ""
b1000 '"
b101 !"
b101 n
b10001111101001010000000000000100 9
b10001111101001010000000000000100 `
b111100 >
b111100 U
b111100 j
b111100 s
b111000 -
b111000 W
b111000 _
b111000 z
1!
#140
0!
#145
b100 ?
b100 f
b100 ."
b0 /
b0 m
b0 |
b0 -"
b0 *
b0 Z
b0 i
b11100 &
b11100 T
b11100 X
b11100 h
b1000000 @
b1000000 x
b1000000 y
b11100 H
b0 G
b1100 R
b11100 S
b10100000 O
b1000 K
b1000 0
b1000 M
b1000 d
b0 $
b0 l
b0 +"
b10000 .
b10000 r
b10000 {
b1000000 7
b1000000 u
b1000000 v
b1110110000000000000000100000 8
b1110110000000000000000100000 t
b1110110000000000000000100000 1"
b1000 %
b1000 b
b1000 %"
b1000 )"
b11101100000000000000001000 0"
b1000 #"
b1000 B
b0 +
b0 Y
b0 c
b0 ""
b0 '"
b10000 !"
b10000 n
b10001111101100000000000000001000 9
b10001111101100000000000000001000 `
b1000000 >
b1000000 U
b1000000 j
b1000000 s
b111100 -
b111100 W
b111100 _
b111100 z
1!
#150
0!
#155
b100000 &
b100000 T
b100000 X
b100000 h
b1000100 @
b1000100 x
b1000100 y
b100 G
b1000 R
b100000 S
b11110000 O
b1100 K
b1100 0
b1100 M
b1100 d
b10001 .
b10001 r
b10001 {
b1000100 7
b1000100 u
b1000100 v
b1110110001000000000000110000 8
b1110110001000000000000110000 t
b1110110001000000000000110000 1"
b1100 %
b1100 b
b1100 %"
b1100 )"
b11101100010000000000001100 0"
b1100 #"
b1100 B
b10001 !"
b10001 n
b10001111101100010000000000001100 9
b10001111101100010000000000001100 `
b1000100 >
b1000100 U
b1000100 j
b1000100 s
b1000000 -
b1000000 W
b1000000 _
b1000000 z
1!
#160
0!
#165
b10100 ?
b10100 f
b10100 ."
b10000 /
b10000 m
b10000 |
b10000 -"
b10000 *
b10000 Z
b10000 i
b100100 &
b100100 T
b100100 X
b100100 h
b1001000 @
b1001000 x
b1001000 y
b10100 H
b10000 G
b100 R
b100100 S
b101000000 O
b10000 K
b10000 0
b10000 M
b10000 d
b10000 $
b10000 l
b10000 +"
b11111 .
b11111 r
b11111 {
b1001000 7
b1001000 u
b1001000 v
b1110111111000000000001000000 8
b1110111111000000000001000000 t
b1110111111000000000001000000 1"
b10000 %
b10000 b
b10000 %"
b10000 )"
b11101111110000000000010000 0"
b10000 #"
b10000 B
b10000 +
b10000 Y
b10000 c
b10000 ""
b10000 '"
b11111 !"
b11111 n
b10001111101111110000000000010000 9
b10001111101111110000000000010000 `
b1001000 >
b1001000 U
b1001000 j
b1001000 s
b1000100 -
b1000100 W
b1000100 _
b1000100 z
1!
#170
0!
#175
b110000 ?
b110000 f
b110000 ."
b101100 /
b101100 m
b101100 |
b101100 -"
b101100 &
b101100 T
b101100 X
b101100 h
b0 '
b0 F
b0 k
b1001100 @
b1001100 x
b1001100 y
b1 L
b11100 H
b1 P
b11111111111111111111111111111100 R
b101100 S
b111100000 O
b11000 K
b11000 0
b11000 M
b11000 d
03
b1000 =
b1000 C
b1000 ]
b10100 $
b10100 l
b10100 +"
b11101 .
b11101 r
b11101 {
b1001100 7
b1001100 u
b1001100 v
b1110111101000000000001100000 8
b1110111101000000000001100000 t
b1110111101000000000001100000 1"
b11000 %
b11000 b
b11000 %"
b11000 )"
b11101111010000000000011000 0"
b1000 $"
b11000 #"
b11000 B
b1000 \
b10100 +
b10100 Y
b10100 c
b10100 ""
b10100 '"
b11101 !"
b11101 n
b100011101111010000000000011000 9
b100011101111010000000000011000 `
b1001100 >
b1001100 U
b1001100 j
b1001100 s
b1001000 -
b1001000 W
b1001000 _
b1001000 z
1!
#180
0!
#185
0(
15
b10000 @
b10000 x
b10000 y
b10100 ?
b10100 f
b10100 ."
b10000 /
b10000 m
b10000 |
b10000 -"
b0 K
b0 0
b0 M
b0 d
0<
b1 )
b1 ^
b1 q
b0 =
b0 C
b0 ]
b0 .
b0 r
b0 {
b1010000 7
b1010000 u
b1010000 v
b10000 &
b10000 T
b10000 X
b10000 h
b0 $
b0 l
b0 +"
b1111100000000000000000100000 8
b1111100000000000000000100000 t
b1111100000000000000000100000 1"
b1000 %
b1000 b
b1000 %"
b1000 )"
b11111000000000000000001000 0"
b0 $"
b1000 #"
b1000 B
b0 \
b0 !"
b11111 }
b0 n
b11111000000000000000001000 9
b11111000000000000000001000 `
b0 L
b10000 H
b0 G
b0 P
b1010000 >
b1010000 U
b1010000 j
b1010000 s
b1001100 -
b1001100 W
b1001100 _
b1001100 z
b10000 R
b10000 S
b0 O
b10000 J
b10000 ,
b10000 N
b10000 w
b10000 ~
b10000 &"
b0 +
b0 Y
b0 c
b0 ""
b0 '"
1!
#190
0!
#195
b100 ?
b100 f
b100 ."
b0 /
b0 m
b0 |
b0 -"
0:
b10 =
b10 C
b10 ]
1#
b0 &
b0 T
b0 X
b0 h
b0 @
b0 x
b0 y
b10100 7
b10100 u
b10100 v
0Q
b1010000 8
b1010000 t
b1010000 1"
b10100 %
b10100 b
b10100 %"
b10100 )"
b0 H
b10100 0"
b10 $"
b10100 #"
b10100 B
b10 \
b0 R
b0 S
b0 J
b0 ,
b0 N
b0 w
b0 ~
b0 &"
b0 }
b1000000000000000000000010100 9
b1000000000000000000000010100 `
b10100 >
b10100 U
b10100 j
b10100 s
b10000 -
b10000 W
b10000 _
b10000 z
1!
#200
0!
#205
b100 @
b100 x
b100 y
b110000 ?
b110000 f
b110000 ."
b101100 /
b101100 m
b101100 |
b101100 -"
b11101 .
b11101 r
b11101 {
05
0#
b101100 &
b101100 T
b101100 X
b101100 h
b1 L
b101100 H
b1 P
1(
1<
b0 )
b0 ^
b0 q
b1000 =
b1000 C
b1000 ]
b11111111111111111111111111010100 R
b101100 S
b101100 K
b101100 0
b101100 M
b101100 d
b101100 $
b101100 l
b101100 +"
b100 7
b100 u
b100 v
b11101000000000010110000 8
b11101000000000010110000 t
b11101000000000010110000 1"
b101100 %
b101100 b
b101100 %"
b101100 )"
b111010000000000101100 0"
b1000 $"
b101100 #"
b101100 B
b1000 \
b101100 +
b101100 Y
b101100 c
b101100 ""
b101100 '"
b11101 !"
b11101 n
b100000000111010000000000101100 9
b100000000111010000000000101100 `
b100 >
b100 U
b100 j
b100 s
b0 -
b0 W
b0 _
b0 z
1!
#210
0!
#215
b111 ?
b111 f
b111 ."
b11 /
b11 m
b11 |
b11 -"
b11 &
b11 T
b11 X
b11 h
b1000 @
b1000 x
b1000 y
b11 H
b11111111111111111111111111111101 R
b11 S
b11 K
b11 0
b11 M
b11 d
b11 $
b11 l
b11 +"
b100 .
b100 r
b100 {
b1000 7
b1000 u
b1000 v
b100000000000000001100 8
b100000000000000001100 t
b100000000000000001100 1"
b11 %
b11 b
b11 %"
b11 )"
b1000000000000000011 0"
b11 #"
b11 B
b11 +
b11 Y
b11 c
b11 ""
b11 '"
b100 !"
b100 n
b100000000001000000000000000011 9
b100000000001000000000000000011 `
b1000 >
b1000 U
b1000 j
b1000 s
b100 -
b100 W
b100 _
b100 z
1!
#220
0!
#225
b1100 ?
b1100 f
b1100 ."
b1000 /
b1000 m
b1000 |
b1000 -"
b1000 &
b1000 T
b1000 X
b1000 h
b1100 @
b1100 x
b1100 y
b1000 H
b11111111111111111111111111111000 R
b1000 S
b1000 K
b1000 0
b1000 M
b1000 d
b1000 $
b1000 l
b1000 +"
b101 .
b101 r
b101 {
b1100 7
b1100 u
b1100 v
b101000000000000100000 8
b101000000000000100000 t
b101000000000000100000 1"
b1000 %
b1000 b
b1000 %"
b1000 )"
b1010000000000001000 0"
b1000 #"
b1000 B
b1000 +
b1000 Y
b1000 c
b1000 ""
b1000 '"
b101 !"
b101 n
b100000000001010000000000001000 9
b100000000001010000000000001000 `
b1100 >
b1100 U
b1100 j
b1100 s
b1000 -
b1000 W
b1000 _
b1000 z
1!
#230
0!
#235
1#
b10100 ?
b10100 f
b10100 ."
b10000 /
b10000 m
b10000 |
b10000 -"
b0 L
b0 P
b0 &
b0 T
b0 X
b0 h
b11 '
b11 F
b11 k
b10100 @
b10100 x
b10100 y
b0 H
b0 R
b0 S
b0 K
b0 0
b0 M
b0 d
16
0<
b10 )
b10 ^
b10 q
b11 =
b11 C
b11 ]
b0 $
b0 l
b0 +"
b11111 .
b11111 r
b11111 {
b10100 7
b10100 u
b10100 v
b10100 8
b10100 t
b10100 1"
b101 %
b101 b
b101 %"
b101 )"
b101 0"
b11 $"
b101 #"
b101 B
b11 \
b0 +
b0 Y
b0 c
b0 ""
b0 '"
b0 !"
b0 n
b1100000000000000000000000101 9
b1100000000000000000000000101 `
b10000 >
b10000 U
b10000 j
b10000 s
b1100 -
b1100 W
b1100 _
b1100 z
1!
#240
0!
#245
b1 L
b11000 @
b11000 x
b11000 y
b11101 .
b11101 r
b11101 {
b0 '
b0 F
b0 k
b101000 G
1:
b11000 7
b11000 u
b11000 v
06
1<
b0 )
b0 ^
b0 q
b1000 =
b1000 C
b1000 ]
b1111111111111111111111111111111111111111111111111111101111100000 O
b11111111111111111111111111101000 K
b11111111111111111111111111101000 0
b11111111111111111111111111101000 M
b11111111111111111111111111101000 d
0#
b10100 &
b10100 T
b10100 X
b10100 h
b11000 ?
b11000 f
b11000 ."
b10100 /
b10100 m
b10100 |
b10100 -"
1Q
b1110111101111111111110100000 8
b1110111101111111111110100000 t
b1110111101111111111110100000 1"
b11111111111111111111111111101000 %
b11111111111111111111111111101000 b
b11111111111111111111111111101000 %"
b11111111111111111111111111101000 )"
b11111111111111111111111111101100 H
b11101111011111111111101000 0"
b11111 *"
b1000 $"
b1111111111101000 #"
b101000 B
b1000 \
b101100 +
b101100 Y
b101100 c
b101100 ""
b101100 '"
b11101 !"
b1000100 R
b10100 S
b101100 J
b101100 ,
b101100 N
b101100 w
b101100 ~
b101100 &"
b11101 }
b11111 o
b11101 n
b100011101111011111111111101000 9
b100011101111011111111111101000 `
b11000 >
b11000 U
b11000 j
b11000 s
b10100 -
b10100 W
b10100 _
b10100 z
1!
#250
0!
